{"breadcrumbs":[{"label":"# Employees","signal_field_name":"organization_num_employees_ranges","value":"11,50","display_name":"11-50"},{"label":"Company Keywords Contain ANY Of","signal_field_name":"q_organization_keyword_tags","value":"software","display_name":"software"}],"partial_results_only":false,"has_join":false,"disable_eu_prospecting":false,"partial_results_limit":10000,"pagination":{"page":1,"per_page":1,"total_entries":498276,"total_pages":498276},"accounts":[],"organizations":[{"id":"638a29a8a2636d00c45d9f0c","name":"Crossing Hurdles","website_url":"http://www.crossinghurdles.com","angellist_url":null,"linkedin_url":"http://www.linkedin.com/company/crossinghurdles","twitter_url":null,"facebook_url":null,"primary_phone":{},"languages":[],"alexa_ranking":null,"phone":null,"linkedin_uid":"87405632","founded_year":2022,"publicly_traded_symbol":null,"publicly_traded_exchange":null,"logo_url":"https://zenprospect-production.s3.amazonaws.com/uploads/pictures/69afbc4a362c19000150d8dc/picture","crunchbase_url":null,"primary_domain":"crossinghurdles.com","sic_codes":["7361"],"naics_codes":["54161"],"owned_by_organization_id":null,"organization_revenue_printed":null,"organization_revenue":0.0,"intent_strength":null,"show_intent":true,"has_intent_signal_account":false,"intent_signal_account":null,"organization_headcount_six_month_growth":0.02083333333333333,"organization_headcount_twelve_month_growth":1.130434782608696,"organization_headcount_twenty_four_month_growth":7.166666666666667}],"model_ids":["638a29a8a2636d00c45d9f0c"],"num_fetch_result":null,"derived_params":{}}